Epoch: 00 Acc:87.1676106645
Epoch: 01 Acc:94.5959883687
Epoch: 02 Acc:95.4785672078
Epoch: 03 Acc:96.0202794821
Epoch: 04 Acc:96.4000077409
Epoch: 05 Acc:96.6864090969
Epoch: 06 Acc:96.9128659319
Epoch: 07 Acc:97.0979771896
Epoch: 08 Acc:97.2530869695
Epoch: 09 Acc:97.3855802984
Epoch: 10 Acc:97.5005083755
Epoch: 11 Acc:97.601463091
Epoch: 12 Acc:97.6910802494
Epoch: 13 Acc:97.7713450285
Epoch: 14 Acc:97.8437856664
Epoch: 15 Acc:97.9096008287
Epoch: 16 Acc:97.9697459887
Epoch: 17 Acc:98.0249935839
Epoch: 18 Acc:98.0759758867
Epoch: 19 Acc:98.1232161805
Epoch: 20 Acc:98.1671518406
Epoch: 21 Acc:98.2081516969
Epoch: 22 Acc:98.2465292834
Epoch: 23 Acc:98.2825530811
Epoch: 24 Acc:98.3164545284
Epoch: 25 Acc:98.3484343554
Epoch: 26 Acc:98.3786676392
Epoch: 27 Acc:98.4073078779
Epoch: 28 Acc:98.4344902982
Epoch: 29 Acc:98.4603345643
Acc:98.4825210324
