51
Iteration: 0
[121, 35, 101, 543, 832, 131, 154, 424, 30, 302, 388, 170, 301, 54, 539, 287, 459, 719, 188, 293, 608, 680, 28, 352, 40, 1313, 454, 171, 980, 384, 480, 530, 118, 182, 381, 803, 528, 99, 509, 330, 875, 389, 470, 491, 477, 391, 696, 710, 258, 51, 151]
Iteration: 1
[123, 60, 122, 807, 655, 276, 115, 568, 26, 308, 570, 318, 401, 52, 620, 285, 343, 890, 233, 219, 332, 701, 42, 346, 53, 979, 457, 202, 796, 273, 485, 351, 48, 191, 257, 554, 501, 135, 607, 413, 931, 381, 607, 568, 469, 713, 724, 448, 190, 99, 156]
Iteration: 2
[97, 107, 109, 947, 687, 316, 83, 650, 19, 271, 659, 492, 439, 38, 643, 274, 345, 927, 281, 258, 208, 655, 35, 312, 44, 771, 448, 188, 758, 176, 457, 246, 29, 225, 192, 449, 489, 130, 599, 594, 1082, 385, 638, 524, 472, 797, 623, 338, 205, 149, 140]
Iteration: 3
[75, 145, 97, 1079, 759, 279, 65, 730, 12, 235, 663, 575, 481, 23, 631, 263, 339, 911, 258, 297, 144, 610, 27, 305, 25, 647, 434, 166, 650, 162, 461, 206, 28, 255, 144, 436, 468, 102, 589, 848, 1240, 388, 665, 431, 463, 799, 538, 270, 359, 130, 93]
Iteration: 4
[53, 137, 104, 1172, 719, 209, 63, 844, 5, 201, 636, 646, 520, 14, 576, 243, 313, 951, 214, 338, 110, 536, 17, 327, 18, 530, 422, 136, 632, 148, 460, 167, 23, 280, 110, 488, 450, 90, 556, 1167, 1401, 392, 694, 362, 480, 711, 458, 252, 445, 106, 74]
Iteration: 5
[41, 127, 115, 1283, 640, 155, 58, 940, 1, 157, 608, 715, 544, 11, 517, 235, 284, 1004, 176, 366, 106, 497, 16, 354, 12, 415, 413, 112, 632, 131, 464, 126, 18, 257, 94, 556, 429, 85, 506, 1550, 1538, 392, 716, 298, 470, 599, 382, 236, 452, 103, 64]
Iteration: 6
[31, 115, 140, 1469, 643, 121, 44, 984, 1, 121, 590, 799, 570, 11, 468, 241, 302, 1017, 131, 368, 101, 453, 11, 359, 13, 299, 413, 99, 648, 112, 475, 81, 12, 222, 87, 556, 424, 76, 476, 1880, 1612, 391, 700, 291, 456, 459, 311, 232, 425, 99, 61]
Iteration: 7
[22, 97, 180, 1632, 663, 104, 36, 961, 1, 97, 594, 829, 612, 11, 430, 261, 298, 1007, 95, 373, 98, 407, 8, 330, 13, 220, 421, 87, 664, 100, 535, 57, 10, 194, 79, 498, 406, 72, 423, 2222, 1626, 390, 687, 303, 468, 381, 263, 221, 368, 93, 53]
Iteration: 8
[17, 82, 187, 1684, 673, 87, 28, 928, 1, 83, 639, 847, 707, 11, 381, 357, 296, 1024, 79, 382, 78, 361, 8, 328, 15, 148, 430, 81, 693, 89, 621, 41, 7, 183, 72, 415, 370, 69, 367, 2455, 1630, 387, 651, 319, 473, 307, 219, 204, 340, 100, 46]
Iteration: 9
[13, 66, 187, 1686, 638, 77, 21, 911, 1, 67, 725, 827, 872, 9, 360, 540, 291, 974, 69, 379, 72, 317, 7, 312, 15, 112, 447, 69, 691, 70, 737, 33, 6, 150, 69, 351, 356, 66, 306, 2619, 1572, 385, 594, 324, 491, 274, 190, 191, 308, 107, 46]
Cluster Data
***********************************************************************
[('s049', 9), ('s033', 1), ('s016', 1), ('s022', 1), ('s020', 1)]
***********************************************************************
Cluster Data
***********************************************************************
[('s020', 8), ('s033', 7), ('s040', 7), ('s047', 5), ('s030', 4), ('s046', 4), ('s005', 3), ('s024', 3), ('s021', 3), ('s054', 2), ('s038', 2), ('s035', 2), ('s016', 2), ('s049', 2), ('s043', 2), ('s027', 2), ('s057', 1), ('s018', 1), ('s031', 1), ('s032', 1), ('s007', 1), ('s042', 1), ('s044', 1), ('s025', 1)]
***********************************************************************
Cluster Data
***********************************************************************
[('s047', 89), ('s030', 14), ('s031', 10), ('s027', 10), ('s021', 7), ('s028', 6), ('s039', 5), ('s050', 4), ('s040', 4), ('s037', 3), ('s046', 3), ('s029', 3), ('s025', 3), ('s024', 3), ('s012', 2), ('s035', 2), ('s032', 2), ('s003', 2), ('s041', 2), ('s016', 1), ('s015', 1), ('s018', 1), ('s019', 1), ('s038', 1), ('s010', 1), ('s033', 1), ('s005', 1), ('s004', 1), ('s043', 1), ('s042', 1), ('s049', 1), ('s026', 1)]
***********************************************************************
Cluster Data
***********************************************************************
[('s017', 284), ('s037', 160), ('s002', 129), ('s026', 124), ('s048', 96), ('s029', 95), ('s035', 91), ('s050', 84), ('s028', 84), ('s051', 70), ('s021', 57), ('s057', 54), ('s032', 50), ('s018', 47), ('s015', 42), ('s031', 36), ('s013', 28), ('s025', 27), ('s004', 24), ('s007', 14), ('s010', 13), ('s027', 12), ('s008', 10), ('s056', 9), ('s030', 9), ('s034', 7), ('s053', 5), ('s003', 4), ('s046', 4), ('s024', 4), ('s054', 3), ('s055', 3), ('s039', 2), ('s044', 2), ('s011', 1), ('s020', 1), ('s012', 1)]
***********************************************************************
Cluster Data
***********************************************************************
[('s046', 201), ('s039', 197), ('s035', 38), ('s050', 28), ('s016', 26), ('s026', 25), ('s032', 18), ('s048', 12), ('s020', 9), ('s041', 8), ('s004', 8), ('s054', 7), ('s002', 7), ('s031', 6), ('s057', 5), ('s044', 5), ('s021', 5), ('s005', 4), ('s051', 3), ('s011', 3), ('s008', 3), ('s056', 2), ('s033', 2), ('s018', 2), ('s034', 2), ('s007', 2), ('s013', 2), ('s017', 1), ('s015', 1), ('s053', 1), ('s010', 1), ('s030', 1), ('s042', 1), ('s049', 1), ('s027', 1)]
***********************************************************************
Cluster Data
***********************************************************************
[('s041', 10), ('s040', 9), ('s025', 8), ('s016', 6), ('s038', 5), ('s043', 4), ('s049', 4), ('s035', 3), ('s047', 3), ('s022', 3), ('s019', 2), ('s031', 2), ('s005', 2), ('s002', 2), ('s024', 2), ('s030', 1), ('s033', 1), ('s052', 1), ('s018', 1), ('s039', 1), ('s037', 1), ('s015', 1), ('s044', 1), ('s046', 1), ('s029', 1), ('s026', 1), ('s020', 1)]
***********************************************************************
Cluster Data
***********************************************************************
[('s049', 13), ('s036', 6), ('s022', 2)]
***********************************************************************
Cluster Data
***********************************************************************
[('s044', 271), ('s028', 242), ('s024', 199), ('s031', 54), ('s038', 29), ('s017', 26), ('s035', 19), ('s039', 9), ('s037', 5), ('s015', 5), ('s007', 4), ('s042', 4), ('s026', 4), ('s040', 3), ('s047', 3), ('s021', 3), ('s008', 2), ('s056', 2), ('s057', 2), ('s054', 2), ('s051', 2), ('s018', 2), ('s034', 2), ('s030', 2), ('s043', 2), ('s029', 2), ('s027', 2), ('s053', 1), ('s050', 1), ('s019', 1), ('s010', 1), ('s032', 1), ('s048', 1), ('s002', 1), ('s025', 1), ('s013', 1)]
***********************************************************************
Cluster Data
***********************************************************************
[('s049', 1)]
***********************************************************************
Cluster Data
***********************************************************************
[('s043', 10), ('s049', 9), ('s046', 6), ('s038', 5), ('s016', 5), ('s033', 5), ('s044', 5), ('s040', 4), ('s041', 3), ('s047', 3), ('s054', 2), ('s052', 2), ('s005', 1), ('s022', 1), ('s012', 1), ('s026', 1), ('s036', 1), ('s031', 1), ('s034', 1), ('s020', 1)]
***********************************************************************
Cluster Data
***********************************************************************
[('s011', 306), ('s012', 140), ('s020', 101), ('s003', 61), ('s008', 42), ('s007', 26), ('s018', 14), ('s034', 13), ('s032', 8), ('s056', 4), ('s051', 4), ('s054', 3), ('s004', 2), ('s053', 1)]
***********************************************************************
Cluster Data
***********************************************************************
[('s048', 127), ('s004', 96), ('s034', 73), ('s002', 62), ('s018', 56), ('s003', 44), ('s027', 38), ('s031', 33), ('s037', 29), ('s020', 25), ('s032', 21), ('s011', 20), ('s041', 20), ('s056', 15), ('s039', 15), ('s029', 14), ('s015', 13), ('s008', 12), ('s035', 12), ('s053', 11), ('s026', 10), ('s057', 9), ('s051', 9), ('s050', 8), ('s007', 8), ('s016', 7), ('s030', 6), ('s013', 6), ('s012', 6), ('s017', 4), ('s010', 4), ('s046', 4), ('s054', 3), ('s055', 2), ('s028', 2), ('s021', 2), ('s025', 1)]
***********************************************************************
Cluster Data
***********************************************************************
[('s055', 367), ('s056', 173), ('s013', 108), ('s057', 67), ('s032', 37), ('s051', 33), ('s010', 26), ('s015', 12), ('s003', 12), ('s020', 11), ('s011', 7), ('s008', 6), ('s007', 5), ('s012', 3), ('s035', 3), ('s004', 2)]
***********************************************************************
Cluster Data
***********************************************************************
[('s036', 4), ('s022', 3), ('s049', 1), ('s047', 1)]
***********************************************************************
Cluster Data
***********************************************************************
[('s047', 46), ('s033', 44), ('s027', 41), ('s040', 31), ('s030', 24), ('s031', 23), ('s024', 20), ('s002', 15), ('s016', 13), ('s005', 11), ('s038', 9), ('s044', 8), ('s039', 7), ('s003', 6), ('s046', 6), ('s012', 5), ('s042', 5), ('s050', 4), ('s049', 4), ('s037', 3), ('s008', 3), ('s054', 3), ('s004', 3), ('s028', 3), ('s020', 3), ('s018', 2), ('s035', 2), ('s011', 2), ('s026', 2), ('s048', 2), ('s013', 2), ('s015', 1), ('s053', 1), ('s019', 1), ('s032', 1), ('s007', 1), ('s041', 1), ('s021', 1), ('s034', 1)]
***********************************************************************
Cluster Data
***********************************************************************
[('s056', 118), ('s039', 101), ('s004', 87), ('s032', 35), ('s020', 35), ('s048', 28), ('s054', 22), ('s011', 14), ('s003', 13), ('s037', 10), ('s021', 10), ('s050', 8), ('s008', 8), ('s034', 8), ('s051', 7), ('s002', 7), ('s026', 5), ('s057', 4), ('s055', 4), ('s053', 3), ('s012', 3), ('s018', 2), ('s035', 2), ('s010', 2), ('s007', 2), ('s044', 1), ('s040', 1)]
***********************************************************************
Cluster Data
***********************************************************************
[('s022', 187), ('s043', 80), ('s035', 4), ('s044', 3), ('s049', 2), ('s038', 2), ('s036', 2), ('s032', 2), ('s005', 2), ('s040', 2), ('s019', 1), ('s024', 1), ('s033', 1), ('s020', 1), ('s050', 1)]
***********************************************************************
Cluster Data
***********************************************************************
[('s054', 261), ('s035', 97), ('s026', 89), ('s050', 69), ('s008', 56), ('s046', 41), ('s015', 34), ('s048', 28), ('s029', 25), ('s017', 24), ('s020', 21), ('s004', 20), ('s053', 19), ('s007', 19), ('s018', 18), ('s031', 16), ('s037', 16), ('s013', 16), ('s057', 13), ('s051', 12), ('s032', 10), ('s027', 9), ('s034', 8), ('s028', 7), ('s040', 5), ('s011', 4), ('s056', 4), ('s010', 4), ('s003', 4), ('s042', 4), ('s021', 4), ('s012', 4), ('s055', 3), ('s039', 3), ('s002', 3), ('s025', 3), ('s030', 1)]
***********************************************************************
Cluster Data
***********************************************************************
[('s033', 49), ('s049', 4), ('s016', 4), ('s040', 3), ('s039', 2), ('s020', 2), ('s030', 1), ('s005', 1), ('s002', 1), ('s041', 1), ('s046', 1)]
***********************************************************************
Cluster Data
***********************************************************************
[('s030', 179), ('s033', 74), ('s040', 50), ('s041', 15), ('s016', 9), ('s031', 8), ('s005', 8), ('s012', 5), ('s003', 5), ('s046', 5), ('s027', 4), ('s002', 3), ('s020', 3), ('s018', 2), ('s026', 2), ('s008', 2), ('s050', 2), ('s011', 1), ('s039', 1), ('s037', 1)]
***********************************************************************
Cluster Data
***********************************************************************
[('s022', 31), ('s016', 12), ('s049', 6), ('s043', 5), ('s033', 4), ('s019', 3), ('s036', 2), ('s047', 2), ('s046', 2), ('s005', 1), ('s038', 1), ('s021', 1), ('s040', 1), ('s020', 1)]
***********************************************************************
Cluster Data
***********************************************************************
[('s043', 239), ('s047', 24), ('s044', 14), ('s024', 12), ('s038', 4), ('s030', 4), ('s027', 3), ('s005', 3), ('s042', 3), ('s028', 2), ('s031', 2), ('s018', 1), ('s019', 1), ('s039', 1), ('s032', 1), ('s015', 1), ('s002', 1), ('s022', 1)]
***********************************************************************
Cluster Data
***********************************************************************
[('s022', 3), ('s049', 1), ('s043', 1), ('s030', 1), ('s031', 1)]
***********************************************************************
Cluster Data
***********************************************************************
[('s016', 53), ('s040', 36), ('s044', 18), ('s046', 18), ('s041', 15), ('s038', 13), ('s035', 11), ('s047', 11), ('s019', 10), ('s005', 10), ('s002', 9), ('s030', 8), ('s031', 8), ('s020', 8), ('s037', 7), ('s043', 7), ('s033', 5), ('s049', 5), ('s025', 5), ('s024', 5), ('s050', 4), ('s039', 4), ('s003', 4), ('s021', 4), ('s057', 3), ('s015', 3), ('s027', 3), ('s028', 2), ('s056', 2), ('s052', 2), ('s051', 2), ('s018', 2), ('s010', 2), ('s032', 2), ('s048', 2), ('s017', 1), ('s053', 1), ('s012', 1), ('s007', 1), ('s042', 1), ('s004', 1), ('s026', 1), ('s034', 1), ('s013', 1)]
***********************************************************************
Cluster Data
***********************************************************************
[('s049', 13), ('s036', 2)]
***********************************************************************
Cluster Data
***********************************************************************
[('s044', 26), ('s033', 21), ('s038', 15), ('s030', 7), ('s049', 7), ('s043', 5), ('s039', 4), ('s005', 4), ('s047', 3), ('s050', 2), ('s031', 2), ('s042', 2), ('s022', 2), ('s052', 1), ('s019', 1), ('s034', 1), ('s035', 1), ('s037', 1), ('s016', 1), ('s032', 1), ('s040', 1), ('s046', 1), ('s025', 1), ('s024', 1), ('s021', 1)]
***********************************************************************
Cluster Data
***********************************************************************
[('s042', 350), ('s040', 28), ('s051', 8), ('s031', 7), ('s021', 7), ('s007', 6), ('s018', 5), ('s037', 5), ('s030', 4), ('s020', 4), ('s053', 4), ('s027', 3), ('s012', 3), ('s054', 3), ('s029', 2), ('s052', 2), ('s050', 2), ('s011', 1), ('s048', 1), ('s026', 1), ('s041', 1)]
***********************************************************************
Cluster Data
***********************************************************************
[('s049', 16), ('s030', 14), ('s022', 7), ('s040', 5), ('s016', 4), ('s019', 3), ('s033', 3), ('s032', 2), ('s031', 2), ('s052', 2), ('s047', 2), ('s024', 2), ('s005', 1), ('s038', 1), ('s034', 1), ('s037', 1), ('s027', 1), ('s043', 1), ('s020', 1)]
***********************************************************************
Cluster Data
***********************************************************************
[('s019', 276), ('s005', 156), ('s021', 99), ('s031', 37), ('s035', 28), ('s026', 23), ('s050', 8), ('s037', 7), ('s057', 5), ('s051', 5), ('s008', 5), ('s030', 4), ('s007', 4), ('s020', 4), ('s041', 3), ('s040', 3), ('s044', 3), ('s049', 3), ('s056', 2), ('s018', 2), ('s010', 2), ('s032', 2), ('s048', 2), ('s046', 2), ('s027', 2), ('s054', 1), ('s003', 1), ('s047', 1), ('s028', 1)]
***********************************************************************
Cluster Data
***********************************************************************
[('s022', 38), ('s036', 13), ('s049', 11), ('s044', 4), ('s040', 1), ('s043', 1), ('s052', 1), ('s047', 1)]
***********************************************************************
Cluster Data
***********************************************************************
[('s010', 322), ('s021', 143), ('s050', 104), ('s032', 52), ('s057', 32), ('s051', 11), ('s037', 10), ('s020', 9), ('s015', 8), ('s013', 7), ('s026', 6), ('s029', 5), ('s056', 3), ('s055', 3), ('s034', 3), ('s017', 3), ('s035', 3), ('s054', 2), ('s053', 2), ('s018', 2), ('s008', 2), ('s011', 1), ('s004', 1), ('s007', 1), ('s042', 1), ('s025', 1)]
***********************************************************************
Cluster Data
***********************************************************************
[('s036', 31), ('s049', 1), ('s043', 1)]
***********************************************************************
Cluster Data
***********************************************************************
[('s049', 2), ('s036', 1), ('s016', 1), ('s022', 1), ('s033', 1)]
***********************************************************************
Cluster Data
***********************************************************************
[('s033', 41), ('s040', 20), ('s049', 11), ('s016', 10), ('s002', 8), ('s005', 7), ('s047', 7), ('s024', 7), ('s030', 4), ('s031', 4), ('s043', 4), ('s025', 4), ('s019', 3), ('s042', 3), ('s044', 3), ('s038', 2), ('s012', 2), ('s035', 2), ('s022', 2), ('s020', 2), ('s018', 1), ('s039', 1), ('s041', 1), ('s027', 1)]
***********************************************************************
Cluster Data
***********************************************************************
[('s022', 40), ('s049', 15), ('s036', 4), ('s016', 4), ('s019', 2), ('s005', 1), ('s018', 1), ('s033', 1), ('s040', 1)]
***********************************************************************
Cluster Data
***********************************************************************
[('s005', 146), ('s033', 36), ('s030', 35), ('s040', 29), ('s046', 20), ('s049', 18), ('s016', 16), ('s041', 14), ('s020', 12), ('s031', 5), ('s044', 4), ('s019', 3), ('s018', 2), ('s038', 2), ('s021', 2), ('s042', 2), ('s039', 1), ('s056', 1), ('s048', 1), ('s032', 1), ('s002', 1)]
***********************************************************************
Cluster Data
***********************************************************************
[('s025', 189), ('s040', 21), ('s024', 20), ('s019', 17), ('s034', 13), ('s052', 8), ('s031', 7), ('s033', 7), ('s047', 7), ('s030', 6), ('s016', 4), ('s027', 4), ('s020', 4), ('s057', 3), ('s018', 3), ('s038', 3), ('s035', 3), ('s007', 3), ('s002', 3), ('s042', 3), ('s008', 3), ('s054', 2), ('s015', 2), ('s010', 2), ('s037', 2), ('s032', 2), ('s048', 2), ('s028', 2), ('s012', 2), ('s011', 1), ('s056', 1), ('s053', 1), ('s050', 1), ('s051', 1), ('s039', 1), ('s029', 1), ('s026', 1), ('s013', 1)]
***********************************************************************
Cluster Data
***********************************************************************
[('s016', 16), ('s033', 10), ('s046', 8), ('s049', 5), ('s040', 5), ('s038', 3), ('s018', 2), ('s024', 2), ('s004', 2), ('s031', 2), ('s020', 2), ('s005', 1), ('s027', 1), ('s030', 1), ('s022', 1), ('s021', 1), ('s007', 1), ('s035', 1), ('s043', 1), ('s047', 1)]
***********************************************************************
Cluster Data
***********************************************************************
[('s049', 186), ('s019', 42), ('s033', 28), ('s016', 9), ('s046', 8), ('s005', 5), ('s035', 4), ('s044', 4), ('s030', 2), ('s031', 2), ('s041', 2), ('s040', 2), ('s043', 2), ('s057', 1), ('s054', 1), ('s050', 1), ('s038', 1), ('s039', 1), ('s007', 1), ('s008', 1), ('s026', 1), ('s022', 1), ('s021', 1)]
***********************************************************************
Cluster Data
***********************************************************************
[('s053', 296), ('s007', 263), ('s051', 210), ('s015', 206), ('s029', 204), ('s008', 198), ('s013', 194), ('s057', 170), ('s034', 169), ('s018', 157), ('s003', 85), ('s032', 72), ('s020', 66), ('s037', 55), ('s048', 52), ('s054', 51), ('s026', 50), ('s004', 44), ('s056', 12), ('s027', 12), ('s012', 9), ('s031', 8), ('s035', 8), ('s021', 7), ('s017', 5), ('s050', 5), ('s011', 5), ('s042', 4), ('s002', 2)]
***********************************************************************
Cluster Data
***********************************************************************
[('s027', 224), ('s047', 148), ('s025', 124), ('s002', 109), ('s024', 88), ('s004', 85), ('s034', 71), ('s037', 57), ('s015', 53), ('s032', 45), ('s056', 40), ('s030', 40), ('s028', 39), ('s029', 35), ('s008', 33), ('s053', 32), ('s018', 28), ('s012', 27), ('s031', 27), ('s017', 22), ('s050', 20), ('s013', 20), ('s007', 20), ('s048', 19), ('s003', 17), ('s020', 16), ('s035', 14), ('s011', 13), ('s021', 13), ('s039', 12), ('s057', 10), ('s051', 10), ('s026', 10), ('s040', 9), ('s054', 7), ('s055', 7), ('s010', 7), ('s016', 4), ('s046', 4), ('s038', 3), ('s041', 3), ('s005', 2), ('s042', 2), ('s019', 1), ('s033', 1), ('s044', 1)]
***********************************************************************
Cluster Data
***********************************************************************
[('s052', 374), ('s040', 6), ('s027', 1), ('s035', 1), ('s031', 1), ('s020', 1), ('s053', 1)]
***********************************************************************
Cluster Data
***********************************************************************
[('s041', 260), ('s012', 172), ('s003', 116), ('s002', 16), ('s020', 8), ('s040', 8), ('s004', 6), ('s011', 2), ('s033', 2), ('s027', 1), ('s056', 1), ('s031', 1), ('s032', 1)]
***********************************************************************
Cluster Data
***********************************************************************
[('s036', 318), ('s043', 2), ('s022', 2), ('s049', 1), ('s044', 1)]
***********************************************************************
Cluster Data
***********************************************************************
[('s038', 255), ('s031', 42), ('s040', 33), ('s018', 24), ('s053', 14), ('s035', 13), ('s057', 8), ('s037', 8), ('s032', 7), ('s048', 7), ('s041', 7), ('s026', 7), ('s051', 6), ('s015', 6), ('s054', 5), ('s004', 5), ('s020', 5), ('s056', 4), ('s050', 4), ('s029', 4), ('s027', 4), ('s017', 3), ('s021', 3), ('s013', 3), ('s039', 2), ('s034', 2), ('s007', 2), ('s042', 2), ('s008', 2), ('s046', 2), ('s005', 1), ('s002', 1)]
***********************************************************************
Cluster Data
***********************************************************************
[('s046', 40), ('s033', 22), ('s035', 21), ('s038', 18), ('s040', 18), ('s050', 16), ('s041', 14), ('s005', 13), ('s031', 11), ('s039', 10), ('s026', 8), ('s030', 7), ('s016', 7), ('s032', 6), ('s003', 6), ('s047', 6), ('s021', 6), ('s044', 5), ('s017', 4), ('s019', 4), ('s049', 4), ('s027', 4), ('s056', 3), ('s034', 3), ('s020', 3), ('s042', 2), ('s008', 2), ('s024', 2), ('s012', 2), ('s054', 1), ('s052', 1), ('s018', 1), ('s037', 1), ('s002', 1), ('s025', 1), ('s007', 1)]
***********************************************************************
Cluster Data
***********************************************************************
[('s040', 16), ('s047', 16), ('s031', 15), ('s024', 14), ('s044', 10), ('s018', 7), ('s038', 7), ('s033', 7), ('s002', 7), ('s041', 7), ('s043', 7), ('s027', 6), ('s030', 5), ('s039', 5), ('s037', 5), ('s025', 5), ('s034', 5), ('s017', 4), ('s049', 4), ('s035', 4), ('s012', 3), ('s032', 3), ('s048', 3), ('s028', 2), ('s052', 2), ('s042', 2), ('s046', 2), ('s029', 2), ('s004', 2), ('s022', 2), ('s020', 2), ('s011', 1), ('s008', 1), ('s015', 1), ('s053', 1), ('s019', 1), ('s013', 1), ('s016', 1), ('s003', 1), ('s005', 1)]
***********************************************************************
Cluster Data
***********************************************************************
[('s016', 167), ('s040', 7), ('s022', 4), ('s033', 4), ('s005', 2), ('s041', 2), ('s049', 1), ('s019', 1), ('s035', 1), ('s025', 1), ('s020', 1)]
***********************************************************************
Cluster Data
***********************************************************************
[('s026', 23), ('s031', 17), ('s019', 16), ('s025', 16), ('s050', 15), ('s040', 15), ('s038', 13), ('s020', 13), ('s017', 12), ('s021', 12), ('s046', 11), ('s054', 10), ('s003', 10), ('s048', 9), ('s030', 8), ('s034', 8), ('s039', 7), ('s011', 7), ('s005', 7), ('s057', 6), ('s018', 6), ('s041', 6), ('s037', 5), ('s016', 5), ('s024', 5), ('s032', 4), ('s008', 4), ('s007', 4), ('s012', 3), ('s010', 3), ('s027', 3), ('s035', 3), ('s015', 2), ('s033', 2), ('s051', 2), ('s013', 2), ('s004', 2), ('s002', 2), ('s042', 2), ('s047', 2), ('s029', 2), ('s056', 1), ('s053', 1), ('s044', 1), ('s028', 1)]
***********************************************************************
Cluster Data
***********************************************************************
[('s022', 55), ('s043', 18), ('s047', 7), ('s033', 6), ('s040', 3), ('s024', 2), ('s027', 2), ('s036', 2), ('s020', 2), ('s044', 2), ('s039', 1), ('s037', 1), ('s016', 1), ('s032', 1), ('s049', 1), ('s034', 1), ('s031', 1), ('s054', 1)]
***********************************************************************
Cluster Data
***********************************************************************
[('s049', 32), ('s036', 8), ('s022', 5), ('s016', 1)]
***********************************************************************
