Cluster Data
***********************************************************************
[('s047', 8), ('s040', 6), ('s043', 6), ('s044', 5), ('s038', 4), ('s033', 4), ('s041', 3), ('s027', 3), ('s025', 3), ('s039', 2), ('s037', 2), ('s030', 2), ('s032', 2), ('s049', 2), ('s016', 1), ('s008', 1), ('s034', 1), ('s035', 1), ('s031', 1), ('s042', 1), ('s024', 1), ('s022', 1), ('s020', 1)]
8 6 2.65217391304
***********************************************************************
Cluster Data
***********************************************************************
[('s038', 10), ('s044', 9), ('s049', 6), ('s030', 3), ('s039', 2), ('s043', 2), ('s019', 1), ('s016', 1), ('s037', 1), ('s021', 1), ('s033', 1), ('s047', 1), ('s046', 1)]
10 9 3.0
***********************************************************************
Cluster Data
***********************************************************************
[('s049', 6), ('s036', 2)]
6 2 4.0
***********************************************************************
Cluster Data
***********************************************************************
[('s041', 47), ('s012', 6), ('s031', 4), ('s003', 4), ('s040', 4), ('s032', 2), ('s020', 2), ('s033', 2), ('s034', 1), ('s026', 1), ('s056', 1), ('s011', 1), ('s004', 1), ('s021', 1), ('s002', 1), ('s053', 1), ('s046', 1)]
47 6 4.70588235294
***********************************************************************
Cluster Data
***********************************************************************
[('s046', 16), ('s033', 9), ('s050', 8), ('s018', 8), ('s038', 6), ('s035', 5), ('s031', 5), ('s004', 5), ('s040', 4), ('s024', 4), ('s020', 3), ('s015', 2), ('s039', 2), ('s012', 2), ('s011', 2), ('s030', 2), ('s032', 2), ('s007', 2), ('s003', 2), ('s041', 2), ('s026', 2), ('s021', 2), ('s053', 1), ('s049', 1), ('s002', 1), ('s043', 1), ('s042', 1), ('s047', 1), ('s005', 1), ('s029', 1), ('s028', 1), ('s027', 1), ('s034', 1), ('s013', 1)]
16 9 3.14705882353
***********************************************************************
Cluster Data
***********************************************************************
[('s021', 74), ('s032', 46), ('s051', 22), ('s020', 14), ('s026', 9), ('s057', 8), ('s037', 5), ('s003', 4), ('s035', 4), ('s056', 3), ('s050', 3), ('s029', 3), ('s055', 2), ('s034', 2), ('s018', 1), ('s013', 1), ('s010', 1), ('s030', 1), ('s017', 1), ('s048', 1), ('s007', 1), ('s008', 1), ('s012', 1)]
74 46 9.04347826087
***********************************************************************
Cluster Data
***********************************************************************
[('s040', 108), ('s033', 23), ('s041', 3), ('s002', 2), ('s038', 1), ('s012', 1), ('s016', 1), ('s031', 1), ('s020', 1), ('s053', 1)]
108 23 14.2
***********************************************************************
Cluster Data
***********************************************************************
[('s036', 3), ('s022', 2), ('s049', 1), ('s047', 1)]
3 2 1.75
***********************************************************************
Cluster Data
***********************************************************************
[('s018', 85), ('s029', 24), ('s031', 20), ('s051', 20), ('s040', 7), ('s037', 6), ('s003', 4), ('s048', 3), ('s053', 2), ('s004', 2), ('s020', 2), ('s007', 2), ('s011', 1), ('s012', 1), ('s021', 1), ('s054', 1), ('s008', 1)]
85 24 10.7058823529
***********************************************************************
Cluster Data
***********************************************************************
[('s033', 77), ('s040', 2), ('s046', 2), ('s016', 2), ('s041', 1)]
77 2 16.8
***********************************************************************
Cluster Data
***********************************************************************
[('s022', 195), ('s043', 36), ('s036', 2), ('s005', 1), ('s035', 1), ('s016', 1), ('s020', 1), ('s049', 1), ('s040', 1), ('s050', 1)]
195 36 24.0
***********************************************************************
Cluster Data
***********************************************************************
[('s049', 179), ('s033', 23), ('s046', 7), ('s035', 5), ('s016', 4), ('s005', 3), ('s040', 2), ('s019', 1), ('s039', 1), ('s044', 1), ('s041', 1), ('s057', 1), ('s054', 1), ('s008', 1)]
179 23 16.4285714286
***********************************************************************
Cluster Data
***********************************************************************
[('s011', 265), ('s020', 7), ('s008', 4), ('s012', 2), ('s032', 1)]
265 7 55.8
***********************************************************************
Cluster Data
***********************************************************************
[('s057', 189), ('s051', 86), ('s013', 34), ('s032', 23), ('s015', 17), ('s029', 7), ('s026', 7), ('s035', 5), ('s011', 3), ('s007', 2), ('s003', 2), ('s056', 1)]
189 86 31.3333333333
***********************************************************************
Cluster Data
***********************************************************************
[('s017', 293), ('s028', 86), ('s035', 24), ('s051', 20), ('s031', 15), ('s044', 13), ('s026', 11), ('s032', 9), ('s029', 9), ('s015', 8), ('s007', 7), ('s013', 5), ('s037', 5), ('s048', 4), ('s050', 3), ('s024', 3), ('s056', 2), ('s038', 2), ('s010', 2), ('s057', 1), ('s054', 1), ('s018', 1), ('s004', 1), ('s002', 1), ('s046', 1)]
293 86 21.08
***********************************************************************
Cluster Data
***********************************************************************
[('s003', 212), ('s012', 172), ('s032', 5), ('s011', 3), ('s004', 2), ('s020', 1), ('s041', 1)]
212 172 56.5714285714
***********************************************************************
Cluster Data
***********************************************************************
[('s047', 124), ('s028', 8), ('s024', 3), ('s031', 3), ('s025', 3), ('s050', 3), ('s039', 2), ('s027', 2), ('s010', 2), ('s037', 2), ('s018', 1), ('s019', 1), ('s029', 1), ('s016', 1), ('s030', 1), ('s021', 1), ('s015', 1), ('s032', 1), ('s003', 1)]
124 8 8.47368421053
***********************************************************************
Cluster Data
***********************************************************************
[('s033', 12), ('s049', 1), ('s020', 1), ('s042', 1), ('s044', 1)]
12 1 3.2
***********************************************************************
Cluster Data
***********************************************************************
[('s024', 285), ('s028', 176), ('s017', 8), ('s031', 7), ('s044', 6), ('s039', 4), ('s034', 4), ('s015', 3), ('s057', 2), ('s047', 2), ('s038', 1), ('s029', 1), ('s013', 1), ('s032', 1), ('s027', 1), ('s007', 1), ('s002', 1), ('s043', 1), ('s051', 1)]
285 176 26.6315789474
***********************************************************************
Cluster Data
***********************************************************************
[('s056', 241), ('s011', 9), ('s032', 8), ('s020', 6), ('s055', 5), ('s013', 2), ('s004', 1), ('s054', 1)]
241 9 34.125
***********************************************************************
Cluster Data
***********************************************************************
[('s016', 23), ('s022', 21), ('s040', 11), ('s043', 9), ('s049', 8), ('s046', 4), ('s005', 3), ('s030', 3), ('s025', 3), ('s019', 2), ('s020', 1), ('s031', 1), ('s041', 1), ('s033', 1)]
23 21 6.5
***********************************************************************
Cluster Data
***********************************************************************
[('s016', 16), ('s049', 3), ('s046', 2), ('s022', 1), ('s021', 1), ('s033', 1)]
16 3 4.0
***********************************************************************
Cluster Data
***********************************************************************
[('s033', 11), ('s049', 8), ('s046', 4), ('s019', 3), ('s016', 3), ('s022', 3), ('s005', 2), ('s039', 2), ('s030', 2), ('s047', 2), ('s038', 1), ('s032', 1), ('s020', 1)]
11 8 3.30769230769
***********************************************************************
Cluster Data
***********************************************************************
[('s010', 334), ('s050', 11), ('s032', 9), ('s015', 8), ('s013', 7), ('s055', 6), ('s021', 5), ('s057', 3), ('s020', 1), ('s029', 1), ('s056', 1), ('s053', 1), ('s051', 1)]
334 11 29.8461538462
***********************************************************************
Cluster Data
***********************************************************************
[('s049', 4), ('s036', 3), ('s022', 1)]
4 3 2.66666666667
***********************************************************************
Cluster Data
***********************************************************************
[('s041', 25), ('s012', 7), ('s003', 5), ('s020', 3), ('s026', 1), ('s030', 1), ('s034', 1), ('s033', 1)]
25 7 5.5
***********************************************************************
Cluster Data
***********************************************************************
[('s021', 141), ('s026', 20), ('s031', 9), ('s050', 7), ('s010', 6), ('s020', 5), ('s005', 5), ('s035', 4), ('s057', 3), ('s051', 3), ('s018', 1), ('s019', 1), ('s039', 1), ('s007', 1), ('s032', 1), ('s003', 1), ('s056', 1)]
141 20 12.3529411765
***********************************************************************
Cluster Data
***********************************************************************
[('s049', 13), ('s036', 3), ('s016', 3), ('s022', 3), ('s005', 1), ('s018', 1), ('s038', 1), ('s033', 1), ('s040', 1), ('s025', 1), ('s047', 1)]
13 3 2.63636363636
***********************************************************************
Cluster Data
***********************************************************************
[('s035', 163), ('s026', 97), ('s050', 61), ('s046', 30), ('s031', 17), ('s054', 17), ('s021', 13), ('s005', 10), ('s039', 9), ('s057', 7), ('s051', 7), ('s038', 3), ('s048', 3), ('s020', 3), ('s011', 2), ('s056', 2), ('s032', 2), ('s008', 2), ('s055', 1), ('s018', 1), ('s037', 1), ('s017', 1), ('s004', 1), ('s007', 1)]
163 97 18.9166666667
***********************************************************************
Cluster Data
***********************************************************************
[('s018', 102), ('s034', 60), ('s004', 54), ('s003', 51), ('s012', 39), ('s048', 35), ('s031', 22), ('s020', 16), ('s008', 14), ('s007', 12), ('s029', 11), ('s032', 9), ('s011', 4), ('s037', 4), ('s057', 3), ('s054', 3), ('s051', 2), ('s026', 2), ('s021', 2), ('s050', 1), ('s039', 1), ('s035', 1), ('s002', 1)]
102 60 19.5217391304
***********************************************************************
Cluster Data
***********************************************************************
[('s030', 93), ('s016', 12), ('s020', 6), ('s041', 4), ('s040', 4), ('s033', 3), ('s005', 3), ('s046', 2)]
93 12 15.875
***********************************************************************
Cluster Data
***********************************************************************
[('s025', 305), ('s048', 15), ('s024', 12), ('s034', 9), ('s057', 5), ('s018', 5), ('s013', 5), ('s002', 5), ('s008', 5), ('s047', 5), ('s028', 5), ('s011', 4), ('s020', 4), ('s050', 3), ('s051', 3), ('s032', 3), ('s007', 3), ('s040', 3), ('s056', 2), ('s054', 2), ('s010', 2), ('s030', 2), ('s031', 2), ('s015', 2), ('s042', 2), ('s029', 2), ('s027', 2), ('s012', 2), ('s037', 1), ('s016', 1), ('s053', 1), ('s039', 1), ('s004', 1), ('s003', 1), ('s041', 1), ('s026', 1), ('s035', 1)]
305 15 11.5675675676
***********************************************************************
Cluster Data
***********************************************************************
[('s012', 61), ('s027', 60), ('s003', 19), ('s018', 18), ('s034', 16), ('s004', 11), ('s011', 9), ('s020', 7), ('s008', 6), ('s037', 5), ('s002', 4), ('s047', 4), ('s029', 4), ('s054', 3), ('s051', 2), ('s032', 2), ('s040', 2), ('s057', 1), ('s053', 1), ('s015', 1), ('s041', 1), ('s048', 1), ('s021', 1)]
61 60 10.3913043478
***********************************************************************
Cluster Data
***********************************************************************
[('s047', 13), ('s024', 5), ('s030', 4), ('s020', 4), ('s016', 3), ('s040', 3), ('s054', 2), ('s034', 2), ('s018', 1), ('s029', 1), ('s048', 1), ('s027', 1), ('s025', 1), ('s021', 1), ('s033', 1), ('s012', 1), ('s007', 1), ('s026', 1), ('s056', 1), ('s015', 1), ('s035', 1)]
13 5 2.33333333333
***********************************************************************
Cluster Data
***********************************************************************
[('s054', 185), ('s026', 34), ('s050', 28), ('s035', 26), ('s008', 25), ('s046', 15), ('s018', 12), ('s029', 12), ('s020', 11), ('s013', 9), ('s004', 9), ('s057', 8), ('s031', 8), ('s015', 8), ('s048', 8), ('s034', 6), ('s037', 5), ('s032', 5), ('s007', 5), ('s040', 5), ('s051', 4), ('s012', 4), ('s003', 4), ('s010', 3), ('s028', 3), ('s055', 2), ('s053', 2), ('s039', 2), ('s021', 2), ('s011', 1), ('s038', 1), ('s042', 1)]
185 34 14.15625
***********************************************************************
Cluster Data
***********************************************************************
[('s052', 62), ('s040', 5), ('s025', 1), ('s024', 1), ('s020', 1), ('s007', 1), ('s033', 1)]
62 5 10.2857142857
***********************************************************************
Cluster Data
***********************************************************************
[('s043', 18), ('s031', 4), ('s047', 3), ('s022', 2), ('s046', 2), ('s025', 1), ('s021', 1), ('s041', 1), ('s040', 1), ('s033', 1)]
18 4 3.4
***********************************************************************
Cluster Data
***********************************************************************
[('s016', 164), ('s022', 5), ('s040', 3), ('s019', 2), ('s033', 2), ('s005', 1), ('s041', 1), ('s046', 1)]
164 5 22.375
***********************************************************************
Cluster Data
***********************************************************************
[('s050', 105), ('s037', 100), ('s057', 64), ('s026', 57), ('s032', 55), ('s017', 53), ('s013', 51), ('s021', 33), ('s002', 30), ('s029', 21), ('s056', 19), ('s051', 15), ('s015', 8), ('s010', 5), ('s020', 5), ('s035', 5), ('s018', 4), ('s034', 4), ('s004', 3), ('s007', 3), ('s031', 2), ('s054', 2), ('s055', 2), ('s039', 2), ('s008', 2), ('s048', 2), ('s003', 1)]
105 100 24.1851851852
***********************************************************************
Cluster Data
***********************************************************************
[('s022', 6), ('s049', 6), ('s036', 2), ('s040', 2), ('s016', 1), ('s043', 1), ('s044', 1)]
6 6 2.71428571429
***********************************************************************
Cluster Data
***********************************************************************
[('s036', 13), ('s049', 11), ('s022', 4), ('s019', 1), ('s016', 1)]
13 11 6.0
***********************************************************************
Cluster Data
***********************************************************************
[('s033', 14), ('s030', 5), ('s040', 5), ('s016', 4), ('s005', 4), ('s049', 1), ('s018', 1), ('s038', 1), ('s039', 1), ('s036', 1), ('s035', 1), ('s020', 1), ('s044', 1)]
14 5 3.07692307692
***********************************************************************
Cluster Data
***********************************************************************
[('s040', 12), ('s047', 11), ('s027', 6), ('s043', 5), ('s025', 5), ('s052', 4), ('s031', 4), ('s016', 3), ('s038', 3), ('s030', 3), ('s054', 2), ('s033', 2), ('s005', 2), ('s002', 2), ('s046', 2), ('s049', 2), ('s024', 2), ('s020', 2), ('s034', 1), ('s035', 1), ('s037', 1), ('s007', 1), ('s003', 1), ('s041', 1), ('s044', 1), ('s012', 1)]
12 11 3.07692307692
***********************************************************************
Cluster Data
***********************************************************************
[('s044', 4), ('s016', 3), ('s033', 2), ('s049', 2), ('s041', 2), ('s032', 1), ('s040', 1), ('s046', 1)]
4 3 2.0
***********************************************************************
Cluster Data
***********************************************************************
[('s021', 38), ('s026', 4), ('s031', 2), ('s020', 2), ('s040', 2), ('s018', 1), ('s057', 1), ('s037', 1), ('s005', 1), ('s035', 1), ('s054', 1), ('s042', 1), ('s052', 1), ('s050', 1), ('s046', 1)]
38 4 3.86666666667
***********************************************************************
Cluster Data
***********************************************************************
[('s049', 10), ('s036', 2)]
10 2 6.0
***********************************************************************
Cluster Data
***********************************************************************
[('s015', 42), ('s053', 25), ('s034', 24), ('s047', 24), ('s056', 23), ('s037', 22), ('s008', 19), ('s013', 16), ('s032', 14), ('s002', 14), ('s004', 14), ('s029', 13), ('s017', 11), ('s018', 10), ('s027', 10), ('s020', 9), ('s051', 7), ('s055', 6), ('s048', 6), ('s011', 4), ('s031', 4), ('s050', 4), ('s010', 4), ('s003', 4), ('s012', 4), ('s024', 3), ('s057', 3), ('s007', 3), ('s026', 3), ('s028', 3), ('s035', 3), ('s054', 2), ('s021', 2), ('s039', 1), ('s030', 1), ('s040', 1), ('s042', 1), ('s025', 1)]
42 25 9.47368421053
***********************************************************************
Cluster Data
***********************************************************************
[('s036', 36), ('s043', 1)]
36 1 18.5
***********************************************************************
Cluster Data
***********************************************************************
[('s030', 6), ('s040', 4), ('s027', 2), ('s018', 1), ('s012', 1), ('s024', 1), ('s031', 1), ('s021', 1), ('s020', 1), ('s049', 1), ('s034', 1), ('s003', 1), ('s041', 1), ('s033', 1), ('s046', 1)]
6 4 1.6
***********************************************************************
Cluster Data
***********************************************************************
[('s043', 34), ('s024', 10), ('s022', 6), ('s038', 5), ('s016', 4), ('s005', 4), ('s030', 3), ('s042', 3), ('s047', 3), ('s049', 2), ('s040', 2), ('s044', 2), ('s039', 1), ('s028', 1), ('s012', 1), ('s035', 1)]
34 10 5.125
***********************************************************************
Cluster Data
***********************************************************************
[('s005', 298), ('s031', 14), ('s040', 5), ('s020', 4), ('s033', 4), ('s019', 3), ('s022', 2), ('s030', 2), ('s056', 2), ('s026', 1), ('s010', 1), ('s041', 1), ('s046', 1)]
298 14 26.0
***********************************************************************
Cluster Data
***********************************************************************
[('s047', 46), ('s042', 6), ('s044', 6), ('s031', 5), ('s028', 4), ('s024', 4), ('s015', 3), ('s027', 2), ('s035', 2), ('s043', 2), ('s053', 1), ('s050', 1), ('s037', 1), ('s038', 1), ('s054', 1), ('s016', 1), ('s021', 1), ('s032', 1), ('s002', 1)]
46 6 4.68421052632
***********************************************************************
Cluster Data
***********************************************************************
[('s019', 325), ('s031', 4), ('s032', 2), ('s044', 2), ('s050', 2), ('s026', 1), ('s008', 1), ('s037', 1), ('s049', 1), ('s048', 1), ('s035', 1), ('s053', 1)]
325 4 28.5
***********************************************************************
Cluster Data
***********************************************************************
[('s052', 316), ('s040', 4), ('s034', 1), ('s031', 1), ('s053', 1)]
316 4 64.6
***********************************************************************
Cluster Data
***********************************************************************
[('s022', 10), ('s044', 5), ('s043', 4), ('s047', 4), ('s036', 2), ('s016', 2), ('s031', 2), ('s033', 2), ('s002', 2), ('s052', 2), ('s005', 1), ('s018', 1), ('s038', 1), ('s039', 1), ('s035', 1), ('s032', 1), ('s049', 1), ('s040', 1), ('s054', 1), ('s020', 1), ('s046', 1)]
10 5 2.19047619048
***********************************************************************
Cluster Data
***********************************************************************
[('s027', 64), ('s040', 9), ('s047', 6), ('s019', 3), ('s038', 2), ('s004', 2), ('s031', 2), ('s005', 2), ('s012', 2), ('s030', 2), ('s035', 1), ('s010', 1), ('s037', 1), ('s008', 1), ('s025', 1), ('s021', 1), ('s003', 1), ('s002', 1), ('s043', 1), ('s054', 1), ('s024', 1)]
64 9 5.0
***********************************************************************
Cluster Data
***********************************************************************
[('s031', 24), ('s046', 19), ('s016', 18), ('s005', 11), ('s026', 10), ('s050', 7), ('s022', 6), ('s030', 5), ('s040', 5), ('s044', 4), ('s033', 4), ('s042', 3), ('s024', 3), ('s047', 3), ('s035', 3), ('s003', 2), ('s038', 1), ('s027', 1), ('s032', 1), ('s056', 1), ('s008', 1)]
24 19 6.28571428571
***********************************************************************
Cluster Data
***********************************************************************
[('s049', 8), ('s036', 7), ('s022', 6), ('s019', 1)]
8 7 5.5
***********************************************************************
Cluster Data
***********************************************************************
[('s044', 237), ('s031', 54), ('s038', 14), ('s035', 9), ('s039', 7), ('s042', 6), ('s007', 5), ('s028', 5), ('s040', 4), ('s050', 3), ('s018', 3), ('s037', 3), ('s046', 3), ('s054', 2), ('s026', 2), ('s024', 2), ('s021', 2), ('s057', 1), ('s010', 1), ('s016', 1), ('s017', 1), ('s004', 1), ('s008', 1), ('s022', 1), ('s013', 1)]
237 54 14.76
***********************************************************************
Cluster Data
***********************************************************************
[('s020', 101), ('s011', 32), ('s008', 21), ('s054', 9), ('s048', 3), ('s053', 2), ('s018', 2), ('s012', 2), ('s034', 2), ('s037', 1), ('s004', 1), ('s040', 1)]
101 32 14.75
***********************************************************************
Cluster Data
***********************************************************************
[('s042', 347), ('s040', 13), ('s007', 9), ('s051', 4), ('s031', 2), ('s052', 2), ('s018', 1), ('s012', 1), ('s037', 1), ('s021', 1), ('s048', 1), ('s054', 1), ('s053', 1)]
347 13 29.5384615385
***********************************************************************
Cluster Data
***********************************************************************
[('s055', 351), ('s056', 15), ('s013', 6), ('s032', 5), ('s011', 2), ('s051', 2)]
351 15 63.5
***********************************************************************
Cluster Data
***********************************************************************
[('s043', 1), ('s030', 1), ('s036', 1)]
1 1 1.0
***********************************************************************
Cluster Data
***********************************************************************
[('s008', 142), ('s051', 113), ('s007', 113), ('s054', 98), ('s029', 91), ('s026', 29), ('s034', 20), ('s048', 20), ('s020', 20), ('s015', 19), ('s018', 11), ('s013', 10), ('s011', 9), ('s057', 8), ('s053', 6), ('s042', 5), ('s004', 4), ('s012', 4), ('s037', 3), ('s032', 3), ('s046', 3), ('s021', 3), ('s035', 2), ('s050', 1), ('s003', 1)]
142 113 29.52
***********************************************************************
Cluster Data
***********************************************************************
[('s031', 22), ('s002', 22), ('s027', 21), ('s047', 18), ('s024', 18), ('s030', 14), ('s018', 10), ('s039', 10), ('s025', 10), ('s004', 7), ('s034', 7), ('s033', 6), ('s021', 6), ('s037', 5), ('s017', 5), ('s040', 5), ('s044', 5), ('s038', 4), ('s012', 4), ('s011', 4), ('s032', 4), ('s015', 4), ('s003', 4), ('s029', 4), ('s048', 4), ('s028', 3), ('s053', 3), ('s035', 3), ('s041', 3), ('s042', 3), ('s046', 3), ('s020', 3), ('s016', 2), ('s054', 2), ('s050', 2), ('s055', 2), ('s005', 2), ('s007', 2), ('s013', 2), ('s008', 1), ('s043', 1)]
22 22 6.34146341463
***********************************************************************
Cluster Data
***********************************************************************
[('s036', 11), ('s022', 10), ('s047', 2), ('s018', 1)]
11 10 6.0
***********************************************************************
Cluster Data
***********************************************************************
[('s053', 308), ('s015', 15), ('s051', 13), ('s029', 7), ('s018', 6), ('s057', 6), ('s008', 4), ('s007', 4), ('s034', 2), ('s013', 1), ('s011', 1), ('s017', 1), ('s012', 1), ('s040', 1)]
308 15 26.4285714286
***********************************************************************
Cluster Data
***********************************************************************
[('s049', 22), ('s019', 20), ('s016', 17), ('s033', 4), ('s030', 2), ('s007', 2), ('s005', 1), ('s022', 1), ('s021', 1), ('s031', 1), ('s026', 1), ('s040', 1), ('s046', 1)]
22 20 5.69230769231
***********************************************************************
Cluster Data
***********************************************************************
[('s044', 17), ('s046', 16), ('s035', 15), ('s040', 15), ('s016', 14), ('s031', 14), ('s041', 13), ('s038', 11), ('s002', 9), ('s025', 8), ('s039', 7), ('s037', 7), ('s032', 7), ('s047', 7), ('s019', 6), ('s003', 6), ('s048', 6), ('s050', 5), ('s030', 4), ('s021', 4), ('s057', 3), ('s051', 3), ('s015', 3), ('s004', 3), ('s020', 3), ('s056', 2), ('s018', 2), ('s034', 2), ('s005', 2), ('s029', 2), ('s026', 2), ('s028', 1), ('s054', 1), ('s053', 1), ('s010', 1), ('s007', 1), ('s043', 1), ('s042', 1), ('s027', 1), ('s024', 1), ('s012', 1)]
17 16 5.56097560976
***********************************************************************
Cluster Data
***********************************************************************
[('s002', 105), ('s037', 96), ('s004', 47), ('s028', 36), ('s032', 29), ('s015', 23), ('s034', 21), ('s056', 18), ('s047', 18), ('s027', 18), ('s029', 16), ('s018', 11), ('s057', 7), ('s055', 7), ('s048', 7), ('s024', 7), ('s050', 6), ('s013', 6), ('s030', 6), ('s039', 5), ('s010', 5), ('s011', 3), ('s051', 3), ('s021', 3), ('s031', 2), ('s003', 2), ('s026', 2), ('s020', 2), ('s053', 1), ('s007', 1), ('s008', 1)]
105 96 16.5806451613
***********************************************************************
Cluster Data
***********************************************************************
[('s049', 21), ('s033', 6), ('s016', 3), ('s022', 2), ('s005', 1), ('s020', 1)]
21 6 5.66666666667
***********************************************************************
Cluster Data
***********************************************************************
[('s046', 21), ('s035', 15), ('s038', 13), ('s050', 12), ('s033', 12), ('s026', 11), ('s040', 10), ('s005', 8), ('s039', 7), ('s031', 7), ('s047', 6), ('s016', 5), ('s032', 5), ('s041', 5), ('s030', 4), ('s003', 4), ('s042', 4), ('s049', 4), ('s044', 4), ('s019', 2), ('s034', 2), ('s007', 2), ('s008', 2), ('s027', 2), ('s021', 2), ('s020', 2), ('s012', 2), ('s017', 1), ('s056', 1), ('s053', 1), ('s048', 1), ('s004', 1), ('s024', 1)]
21 15 5.42424242424
***********************************************************************
Cluster Data
***********************************************************************
[('s026', 20), ('s050', 17), ('s031', 13), ('s038', 11), ('s003', 11), ('s040', 11), ('s021', 11), ('s054', 10), ('s046', 10), ('s020', 9), ('s039', 6), ('s034', 6), ('s030', 6), ('s005', 6), ('s048', 6), ('s037', 5), ('s057', 5), ('s011', 5), ('s017', 5), ('s016', 3), ('s033', 3), ('s018', 3), ('s035', 3), ('s010', 3), ('s032', 3), ('s007', 3), ('s015', 2), ('s004', 2), ('s041', 2), ('s042', 2), ('s029', 2), ('s012', 2), ('s013', 2), ('s008', 1), ('s056', 1), ('s053', 1), ('s051', 1), ('s044', 1), ('s027', 1), ('s025', 1), ('s022', 1)]
20 17 5.26829268293
***********************************************************************
Cluster Data
***********************************************************************
[('s018', 12), ('s029', 10), ('s050', 9), ('s037', 9), ('s031', 7), ('s032', 7), ('s044', 7), ('s028', 7), ('s035', 7), ('s056', 6), ('s041', 6), ('s015', 5), ('s047', 5), ('s048', 5), ('s020', 5), ('s013', 4), ('s026', 4), ('s057', 3), ('s054', 3), ('s008', 3), ('s004', 3), ('s017', 2), ('s051', 2), ('s038', 2), ('s039', 2), ('s005', 2), ('s034', 2), ('s053', 1), ('s012', 1), ('s010', 1), ('s007', 1), ('s002', 1), ('s040', 1), ('s042', 1), ('s024', 1), ('s021', 1)]
12 10 4.11111111111
***********************************************************************
Cluster Data
***********************************************************************
[('s013', 188), ('s007', 184), ('s015', 109), ('s034', 104), ('s029', 94), ('s008', 63), ('s020', 63), ('s032', 44), ('s018', 43), ('s051', 23), ('s053', 22), ('s037', 16), ('s057', 16), ('s011', 6), ('s004', 6), ('s048', 4), ('s012', 3), ('s056', 1), ('s050', 1), ('s031', 1), ('s026', 1), ('s021', 1), ('s035', 1)]
188 184 43.2173913043
***********************************************************************
Cluster Data
***********************************************************************
[('s049', 22), ('s022', 10), ('s036', 3), ('s033', 2), ('s040', 1), ('s043', 1), ('s044', 1), ('s047', 1)]
22 10 5.125
***********************************************************************
Cluster Data
***********************************************************************
[('s027', 162), ('s004', 29), ('s047', 21), ('s031', 8), ('s032', 7), ('s008', 7), ('s012', 6), ('s037', 5), ('s007', 5), ('s002', 5), ('s056', 4), ('s035', 4), ('s011', 4), ('s030', 4), ('s050', 3), ('s039', 3), ('s034', 3), ('s054', 2), ('s053', 2), ('s020', 2), ('s017', 1), ('s051', 1), ('s018', 1), ('s003', 1), ('s040', 1), ('s026', 1), ('s021', 1)]
162 29 10.8518518519
***********************************************************************
Cluster Data
***********************************************************************
[('s033', 16), ('s049', 4), ('s022', 4), ('s030', 2), ('s005', 2), ('s027', 1), ('s016', 1), ('s036', 1), ('s040', 1), ('s043', 1), ('s042', 1), ('s046', 1)]
16 4 2.91666666667
***********************************************************************
Cluster Data
***********************************************************************
[('s036', 299), ('s043', 2), ('s022', 1), ('s044', 1)]
299 2 75.75
***********************************************************************
Cluster Data
***********************************************************************
[('s046', 183), ('s039', 105), ('s016', 24), ('s050', 21), ('s035', 17), ('s026', 13), ('s054', 6), ('s031', 6), ('s041', 5), ('s032', 4), ('s008', 4), ('s007', 3), ('s056', 2), ('s057', 2), ('s018', 2), ('s011', 2), ('s004', 2), ('s002', 2), ('s020', 2), ('s013', 1), ('s049', 1), ('s048', 1), ('s021', 1)]
183 105 17.7826086957
***********************************************************************
Cluster Data
***********************************************************************
[('s048', 188), ('s039', 157), ('s002', 55), ('s034', 16), ('s004', 14), ('s008', 13), ('s057', 12), ('s018', 9), ('s032', 7), ('s026', 7), ('s050', 6), ('s010', 5), ('s020', 5), ('s037', 4), ('s054', 4), ('s055', 4), ('s051', 3), ('s003', 2), ('s056', 1), ('s013', 1), ('s011', 1), ('s030', 1), ('s015', 1), ('s007', 1), ('s040', 1)]
188 157 20.72
***********************************************************************
Cluster Data
***********************************************************************
[('s050', 25), ('s021', 14), ('s010', 12), ('s032', 6), ('s026', 5), ('s057', 4), ('s020', 3), ('s037', 2), ('s030', 2), ('s024', 1), ('s031', 1), ('s029', 1), ('s028', 1), ('s017', 1), ('s047', 1), ('s048', 1), ('s015', 1), ('s008', 1)]
25 14 4.55555555556
***********************************************************************
Cluster Data
***********************************************************************
[('s040', 15), ('s016', 14), ('s002', 7), ('s047', 7), ('s041', 4), ('s035', 3), ('s031', 3), ('s005', 3), ('s024', 3), ('s038', 2), ('s033', 2), ('s025', 2), ('s020', 2), ('s052', 1), ('s019', 1), ('s034', 1), ('s037', 1), ('s049', 1), ('s004', 1), ('s043', 1), ('s044', 1), ('s022', 1)]
15 14 3.45454545455
***********************************************************************
Cluster Data
***********************************************************************
[('s041', 177), ('s012', 40), ('s002', 12), ('s040', 6), ('s011', 2), ('s003', 2), ('s031', 1), ('s020', 1)]
177 40 30.125
***********************************************************************
Cluster Data
***********************************************************************
[('s050', 9), ('s030', 8), ('s021', 7), ('s047', 5), ('s029', 5), ('s035', 4), ('s039', 3), ('s037', 3), ('s031', 3), ('s046', 3), ('s027', 3), ('s020', 3), ('s011', 2), ('s038', 2), ('s032', 2), ('s015', 2), ('s004', 2), ('s003', 2), ('s041', 2), ('s026', 2), ('s028', 2), ('s016', 1), ('s017', 1), ('s056', 1), ('s054', 1), ('s053', 1), ('s012', 1), ('s013', 1), ('s005', 1), ('s002', 1), ('s042', 1), ('s048', 1), ('s034', 1)]
9 8 2.60606060606
***********************************************************************
Cluster Data
***********************************************************************
[('s049', 1)]
1 -1 1.0
***********************************************************************
Cluster Data
***********************************************************************
[('s015', 79), ('s037', 50), ('s029', 43), ('s028', 40), ('s008', 36), ('s048', 32), ('s002', 31), ('s034', 24), ('s004', 23), ('s013', 21), ('s054', 19), ('s050', 17), ('s026', 16), ('s035', 16), ('s032', 14), ('s051', 13), ('s027', 12), ('s056', 11), ('s007', 7), ('s057', 6), ('s003', 6), ('s053', 3), ('s018', 3), ('s031', 3), ('s047', 3), ('s020', 3), ('s055', 2), ('s039', 2), ('s010', 2), ('s011', 1), ('s030', 1), ('s046', 1), ('s021', 1)]
79 50 16.3939393939
***********************************************************************
Cluster Data
***********************************************************************
[('s038', 268), ('s031', 13), ('s044', 12), ('s035', 7), ('s040', 7), ('s057', 5), ('s017', 3), ('s019', 2), ('s039', 2), ('s048', 2), ('s053', 1), ('s050', 1), ('s051', 1), ('s018', 1), ('s037', 1), ('s032', 1), ('s015', 1), ('s007', 1), ('s042', 1), ('s026', 1), ('s022', 1), ('s021', 1), ('s020', 1)]
268 13 14.5217391304
***********************************************************************
Cluster Data
***********************************************************************
[('s040', 16), ('s035', 12), ('s044', 11), ('s046', 7), ('s016', 6), ('s030', 5), ('s033', 5), ('s041', 5), ('s039', 4), ('s047', 4), ('s054', 2), ('s018', 2), ('s029', 2), ('s028', 2), ('s026', 2), ('s021', 2), ('s056', 1), ('s015', 1), ('s038', 1), ('s012', 1), ('s037', 1), ('s031', 1), ('s002', 1), ('s042', 1), ('s020', 1)]
16 12 3.84
***********************************************************************
Cluster Data
***********************************************************************
[('s022', 77), ('s049', 4), ('s016', 3), ('s036', 1), ('s024', 1), ('s040', 1), ('s052', 1), ('s047', 1)]
77 4 11.125
***********************************************************************
Cluster Data
***********************************************************************
[('s002', 46), ('s034', 24), ('s004', 21), ('s016', 17), ('s039', 15), ('s047', 14), ('s033', 10), ('s027', 10), ('s031', 8), ('s015', 8), ('s028', 8), ('s046', 7), ('s056', 6), ('s030', 6), ('s032', 6), ('s026', 6), ('s048', 5), ('s029', 5), ('s025', 5), ('s013', 4), ('s007', 4), ('s020', 4), ('s008', 3), ('s017', 3), ('s054', 3), ('s050', 3), ('s051', 3), ('s018', 3), ('s038', 3), ('s010', 3), ('s011', 3), ('s024', 3), ('s035', 3), ('s057', 2), ('s053', 2), ('s040', 2), ('s044', 2), ('s037', 1), ('s055', 1), ('s012', 1)]
46 24 7.075
***********************************************************************
Cluster Data
***********************************************************************
[('s049', 9), ('s043', 9), ('s046', 8), ('s044', 6), ('s033', 5), ('s047', 5), ('s038', 4), ('s016', 3), ('s040', 3), ('s005', 1), ('s019', 1), ('s054', 1), ('s012', 1), ('s026', 1), ('s036', 1), ('s022', 1), ('s041', 1), ('s020', 1)]
9 9 3.38888888889
***********************************************************************
Cluster Data
***********************************************************************
[('s043', 256), ('s044', 21), ('s019', 2), ('s038', 2), ('s018', 1), ('s039', 1), ('s035', 1), ('s036', 1), ('s030', 1), ('s022', 1), ('s005', 1)]
256 21 26.1818181818
***********************************************************************
Cluster Data
***********************************************************************
[('s031', 15), ('s040', 7), ('s024', 6), ('s033', 5), ('s030', 4), ('s005', 3), ('s044', 3), ('s047', 3), ('s019', 1), ('s028', 1), ('s012', 1), ('s035', 1), ('s021', 1), ('s049', 1), ('s022', 1), ('s003', 1), ('s042', 1), ('s046', 1)]
15 7 3.11111111111
***********************************************************************
Cluster Data
***********************************************************************
[('s020', 8), ('s040', 4), ('s038', 3), ('s033', 3), ('s046', 3), ('s005', 2), ('s039', 1), ('s025', 1), ('s032', 1), ('s049', 1), ('s057', 1), ('s043', 1)]
8 4 2.41666666667
***********************************************************************
Cluster Data
***********************************************************************
[('s030', 164), ('s047', 7), ('s033', 4), ('s037', 3), ('s002', 3), ('s012', 2), ('s020', 2), ('s005', 2), ('s003', 2), ('s041', 2), ('s011', 1), ('s026', 1), ('s021', 1), ('s050', 1)]
164 7 13.9285714286
***********************************************************************
Cluster Data
***********************************************************************
[('s025', 43), ('s040', 10), ('s024', 9), ('s034', 8), ('s033', 6), ('s031', 6), ('s038', 4), ('s030', 4), ('s019', 3), ('s002', 3), ('s027', 3), ('s020', 3), ('s037', 2), ('s047', 2), ('s016', 1), ('s057', 1), ('s050', 1), ('s018', 1), ('s039', 1), ('s035', 1), ('s032', 1), ('s015', 1), ('s005', 1), ('s048', 1), ('s044', 1), ('s043', 1), ('s042', 1), ('s008', 1), ('s028', 1), ('s012', 1)]
43 10 4.06666666667
***********************************************************************
Cluster Data
***********************************************************************
[('s049', 5), ('s005', 1), ('s022', 1)]
5 1 2.33333333333
***********************************************************************
Cluster Data
***********************************************************************
[('s033', 66), ('s040', 17), ('s049', 7), ('s016', 5), ('s005', 2), ('s025', 1), ('s031', 1), ('s048', 1), ('s002', 1), ('s047', 1)]
66 17 10.2
***********************************************************************
Cluster Data
***********************************************************************
[('s030', 14), ('s049', 9), ('s019', 6), ('s038', 4), ('s022', 4), ('s040', 3), ('s033', 3), ('s039', 2), ('s032', 2), ('s020', 2), ('s031', 2), ('s016', 2), ('s047', 2), ('s024', 2), ('s005', 1), ('s034', 1), ('s026', 1), ('s037', 1), ('s027', 1), ('s041', 1), ('s043', 1)]
14 9 3.04761904762
***********************************************************************
Cluster Data
***********************************************************************
[('s004', 121), ('s048', 25), ('s032', 23), ('s003', 22), ('s039', 19), ('s056', 18), ('s034', 14), ('s002', 13), ('s013', 12), ('s015', 12), ('s037', 10), ('s051', 10), ('s031', 9), ('s018', 8), ('s041', 8), ('s057', 7), ('s020', 7), ('s011', 6), ('s026', 6), ('s050', 5), ('s029', 5), ('s035', 5), ('s008', 4), ('s012', 3), ('s054', 1), ('s055', 1), ('s038', 1), ('s007', 1)]
121 25 13.4285714286
***********************************************************************
Cluster Data
***********************************************************************
[('s041', 62), ('s033', 27), ('s002', 9), ('s040', 8), ('s003', 4), ('s046', 4), ('s012', 3), ('s032', 3), ('s031', 2), ('s020', 2), ('s037', 1), ('s056', 1), ('s011', 1), ('s027', 1)]
62 27 9.14285714286
***********************************************************************
32 70
['s002', 's004', 's015', 's015', 's017', 's018', 's018', 's020', 's020', 's021', 's021', 's022', 's024', 's025', 's027', 's027', 's030', 's031', 's033', 's033', 's035', 's040', 's041', 's043', 's044', 's046', 's046', 's047', 's049', 's050', 's054', 's057'] ['s002', 's003', 's005', 's008', 's010', 's011', 's012', 's013', 's016', 's016', 's016', 's018', 's019', 's021', 's022', 's022', 's022', 's025', 's026', 's030', 's030', 's030', 's031', 's031', 's033', 's033', 's033', 's033', 's036', 's036', 's036', 's036', 's036', 's038', 's038', 's040', 's040', 's040', 's041', 's041', 's041', 's042', 's043', 's043', 's043', 's044', 's044', 's046', 's047', 's047', 's047', 's048', 's049', 's049', 's049', 's049', 's049', 's049', 's049', 's049', 's049', 's049', 's049', 's050', 's050', 's052', 's052', 's053', 's055', 's056']
